# specification of path to input files and path to save results				
# 'path_inputParams' (containing the file inputParams.csv) and 'folder_output' must exist before running FluSM				
# output subfolders are created during the execution of FluSM				
path_inputParams	./inputParams.csv	# path to the inputParams file which contains specification of the plots for which FluSM is calculated and the parameters of the individual plots. Further information is provided within the file.		
folder_output	./outputExample/	# path where to save the output. Subfolders are created during the execution of FluSM		
path_soilMoisture	./inputExample/soilMoisture.txt	# path to a file containing soil moisture time series (tempral resolution 1h). Must contain a column for each plot specified in the inputParams.txt file. The soil moisture time series should be free from temperature effects.		
path_et0_h	./inputExample/et0_h.txt	# path to a file containing potential evaporation [mm/h]		
path_et0_d	./inputExample/et0_d.txt	# path to a file containing potential evaporation [mm/day]		
path_wetDryCycles	./inputExample/wetDryCycles.txt	# path to a file containing information on the separation of rain events and dry periods. Must contain the columns event_ind (0 for dry periods and 1 for rain events) and wetDryCycles (consecutively numbered wet dry cylces)		
path_rain	./inputExample/rain.txt	# path to a file containing precipitation time series [mm/10 min]		
#				
# FluSM controls				
thresh_wcReact	0.4	# soil moisture reaction threshold [vol.%]. Needed for the calculation of the surface storage capacity (FluSM step 1d)	 Default: 0.4	
thresh_et0	0.5	# potential evaporation (et0) threshold [mm/d]. Needed for fitting the parameters of the drainage model (FluSM step 3a)	 Default: 0.5	
constraint1	on	# whether the soil water balance is constrained to the condition that no soil evaporation takes place while there is water available in the surface storage (FluSM step 3c)	 Default: on	
constraint2	on	# whether the soil water balance is constrained to the condition that there is no influx into the soil bucket during dry periods (FluSM step 3c)	 Default: on	
allObs_drainModel	yes	# whether all observations fullfilling the et0 criteria are used for fitting the drainage model [yes or no]. yes: all observations are used	 no: only observations where d(theta)/dt <0 (decreasing soil moisture) are used for fitting the drainage model (FluSM step 3a)	 Default yes
