# daily reference crop evaporation [mm] calculated according to FAO guidelines (Allen et al. 1998) for the WBI climate station
# individual climate variables for the WBI climate station are available at available at http://www.wetter-bw.de/Internet/AM/NotesBwAM.nsf/bwweb/fa31cce8b142f059c1257ca7003c9ed1?OpenDocument&TableRow=3.7#3.
time_UTC	et0
2016-11-01	0.3930371069758229
2016-11-02	0.8831594214980912
2016-11-03	0.5313916692143579
2016-11-04	0.4386816970992757
2016-11-05	0.5604556069757284
2016-11-06	0.6997556816688594
2016-11-07	0.4159296036061563
2016-11-08	0.35716466237354294
2016-11-09	0.40809400344081626
2016-11-10	0.7850644262806555
2016-11-11	0.6150821966392408
2016-11-12	0.4104139069075616
2016-11-13	0.33525471557907016
2016-11-14	0.3092022518236497
2016-11-15	0.3499600194999419
2016-11-16	0.4031700936291687
2016-11-17	0.5760216034823208
2016-11-18	1.217506373523909
2016-11-19	1.557551550285406
2016-11-20	0.6318460281198165
2016-11-21	0.9769396365100164
2016-11-22	0.5812929861201117
2016-11-23	0.3752850419126248
2016-11-24	0.362543433751066
2016-11-25	0.3617322449536324
2016-11-26	0.29818763976623536
2016-11-27	0.3815231419248025
2016-11-28	0.454869639359181
2016-11-29	0.960918939427146
2016-11-30	0.6367871181538709
2016-12-01	0.1744163194489474
2016-12-02	0.07063437040816713
2016-12-03	0.07703441948597849
2016-12-04	0.20824511700863232
2016-12-05	-0.003134935184878937
2016-12-06	-0.016352012786198366
2016-12-07	-0.0020945499590751147
2016-12-08	0.14884218297799787
2016-12-09	0.16124066396222364
2016-12-10	0.30355656437037
2016-12-11	0.3034103670244043
2016-12-12	0.4908706907643038
2016-12-13	0.0025834380804695576
2016-12-14	0.15709240477320227
2016-12-15	0.1764667432781843
2016-12-16	0.1687711227481763
2016-12-17	0.22708501709269785
2016-12-18	0.13482565681679098
2016-12-19	0.2730362248538642
2016-12-20	0.05347628985083289
2016-12-21	0.2657694102251744
2016-12-22	0.14528458573240513
2016-12-23	0.19915140773757672
2016-12-24	0.3257059279146276
2016-12-25	0.7121467606041203
2016-12-26	0.652217054185168
2016-12-27	0.3123869718622529
2016-12-28	0.16402974256116756
2016-12-29	-0.03343261598633053
2016-12-30	0.1474649347073845
2016-12-31	0.07301135948158245
2017-01-01	0.16681036083754242
2017-01-02	0.2403137819561057
2017-01-03	0.244150437383318
2017-01-04	0.25059709580171285
2017-01-05	0.4006596074136814
2017-01-06	0.3605494191097711
2017-01-07	-0.050648165607317434
2017-01-08	0.24818761380475385
2017-01-09	0.27551433150911986
2017-01-10	0.3648319477749363
2017-01-11	0.331989316675496
2017-01-12	0.5492339020685449
2017-01-13	0.7840038584159279
2017-01-14	0.6777856253596491
2017-01-15	0.2932130127024973
2017-01-16	0.2640302836445103
2017-01-17	0.2473297491284403
2017-01-18	0.5294792074476098
2017-01-19	0.7096427258438297
2017-01-20	0.2263945552886271
2017-01-21	0.2099154547796988
2017-01-22	0.23543791804067185
2017-01-23	0.19106550527651187
2017-01-24	0.2041778818367587
2017-01-25	0.2815248001536957
2017-01-26	0.3296373685675064
2017-01-27	0.4462702436636704
2017-01-28	0.4452189876832671
2017-01-29	0.5266370306015645
2017-01-30	0.5412346060289241
2017-01-31	0.8997504480577245
2017-02-01	0.4750544156171162
2017-02-02	0.34439368615047306
2017-02-03	0.4788313310919509
2017-02-04	0.9113014551776676
2017-02-05	1.0759418348907392
2017-02-06	0.4944446560362385
2017-02-07	0.4293652878104256
2017-02-08	0.4645063272547709
2017-02-09	0.4017872673336367
2017-02-10	0.4817694049499631
2017-02-11	0.42467819871576296
2017-02-12	0.5120920323565717
2017-02-13	0.4079177150232313
2017-02-14	0.4810062357111222
2017-02-15	0.6326642950306596
2017-02-16	0.7807416094915327
2017-02-17	0.9472885893495152
2017-02-18	0.6203615464539386
2017-02-19	0.7233079717443687
2017-02-20	0.9763876167519788
2017-02-21	0.9432307619759192
2017-02-22	1.063158910456229
2017-02-23	1.25851483411068
2017-02-24	3.4520019490100813
2017-02-25	0.7997729973083895
2017-02-26	0.8512517655036345
2017-02-27	1.7377877812293665
2017-02-28	2.0487383682303286
2017-03-01	0.966836902661272
2017-03-02	1.3169717514004209
2017-03-03	1.8258982634968088
2017-03-04	1.1518416231501798
2017-03-05	1.4143645262496791
2017-03-06	1.7754376948612447
2017-03-07	0.9286359405530192
2017-03-08	0.7649445878436872
2017-03-09	1.392023155627209
2017-03-10	0.6372802215800262
2017-03-11	1.6739342573389635
2017-03-12	1.5808926583954537
2017-03-13	1.6289625905574319
2017-03-14	1.705739625547623
2017-03-15	1.845741373144267
2017-03-16	1.7845946601667144
2017-03-17	1.9222437331850395
2017-03-18	2.9402408914126634
2017-03-19	1.3075249000638418
2017-03-20	1.7239864291902165
2017-03-21	2.2502732544726944
2017-03-22	1.7240729716383851
2017-03-23	0.7724991321861243
2017-03-24	2.3538452910848187
2017-03-25	1.4590049608119264
2017-03-26	2.67552606484818
2017-03-27	2.2804967686742157
2017-03-28	2.5660666509120285
2017-03-29	3.083069686013549
2017-03-30	2.64723568220066
2017-03-31	2.7097754587495984
2017-04-01	2.8324982645736525
2017-04-02	2.814550031265415
2017-04-03	2.108367724672488
2017-04-04	2.2527874318306944
2017-04-05	2.055606371782973
2017-04-06	2.616696249236878
2017-04-07	2.6472420519565016
2017-04-08	2.7758226459742588
2017-04-09	2.9753115217630666
2017-04-10	3.2491393199741103
2017-04-11	4.289443741409686
2017-04-12	2.903429725508641
2017-04-13	3.508283203488184
2017-04-14	2.920550857721329
2017-04-15	2.192341712701833
2017-04-16	1.2658557869579534
2017-04-17	1.0789596936430044
2017-04-18	0.9555617773630232
2017-04-19	1.6211442263415516
2017-04-20	1.5822745360282688
2017-04-21	2.7720624036473973
2017-04-22	3.043492100576872
2017-04-23	1.6701279362707275
2017-04-24	3.0551148881520303
2017-04-25	3.771432790631384
2017-04-26	1.6550791995148382
2017-04-27	1.1146353759006522
2017-04-28	0.8052354443539848
2017-04-29	2.1168490718377866
2017-04-30	3.3347285761731715
2017-05-01	3.81710384446733
2017-05-02	1.746719217468536
2017-05-03	3.082258891444204
2017-05-04	2.3919707671698696
2017-05-05	2.2900440245608062
2017-05-06	3.3609775994050346
2017-05-07	1.318370067708866
2017-05-08	1.7563314298741015
2017-05-09	0.7243757444650477
2017-05-10	2.7682913467170565
2017-05-11	4.121706358896178
2017-05-12	2.2837928359260293
2017-05-13	3.2723682580174818
2017-05-14	4.243924979612366
2017-05-15	3.1078297929694894
2017-05-16	4.276715482408382
2017-05-17	4.606210750079751
2017-05-18	5.075013649257854
2017-05-19	2.330215619734912
2017-05-20	1.323929857721473
2017-05-21	2.884746696890541
2017-05-22	4.561634109011775
2017-05-23	4.713993752089757
2017-05-24	4.436036603214179
2017-05-25	4.863857415060999
2017-05-26	4.653481212097968
2017-05-27	5.476236067968743
2017-05-28	5.46136237216992
2017-05-29	5.265975613337661
2017-05-30	5.920952739533715
2017-05-31	4.229415626025848
2017-06-01	5.022026966455669
2017-06-02	3.0535208454319354
2017-06-03	4.849835455749363
2017-06-04	4.042233621662353
2017-06-05	3.5217949719906976
2017-06-06	3.131174056213061
2017-06-07	2.8851282567516545
2017-06-08	3.7268372593706
2017-06-09	4.941157189696184
2017-06-10	3.0583201805643543
2017-06-11	4.943255143543111
2017-06-12	5.381169329972783
2017-06-13	4.19942456061335
2017-06-14	5.104307558184433
2017-06-15	4.6587807936408066
2017-06-16	5.356203864301856
2017-06-17	5.003913109145583
2017-06-18	4.860515816977027
2017-06-19	6.043923767783745
2017-06-20	5.6631986864867425
2017-06-21	6.1307180013624505
2017-06-22	5.75551922630746
2017-06-23	6.17521009888116
2017-06-24	5.223265428201158
2017-06-25	4.2358100637267055
2017-06-26	4.199614538080311
2017-06-27	5.39556780396429
2017-06-28	3.9679994503500087
2017-06-29	3.4832753863435113
2017-06-30	3.5888793261357668
2017-07-01	4.694227238417566
2017-07-02	2.9540362689857185
2017-07-03	1.8510712880415323
2017-07-04	4.227266320120132
2017-07-05	5.3421688154605125
2017-07-06	5.479841492953393
2017-07-07	5.947967776732527
2017-07-08	5.113222624468507
2017-07-09	5.600184442532693
2017-07-10	3.0383356660610645
2017-07-11	2.763625492606579
2017-07-12	3.387021476582773
2017-07-13	2.997030426812984
2017-07-14	4.524808527450309
2017-07-15	3.3003086991254365
2017-07-16	4.009096299492119
2017-07-17	4.508035858259909
2017-07-18	5.338156324552135
2017-07-19	5.473318006155868
2017-07-20	5.746502092996538
2017-07-21	3.8725317690982486
2017-07-22	4.472488381005446
2017-07-23	4.226631479405911
2017-07-24	2.9809424556681186
2017-07-25	2.0691864423877493
2017-07-26	1.9960104059826629
2017-07-27	2.5173524615032994
2017-07-28	2.6713001854110825
2017-07-29	3.8180051265476425
2017-07-30	4.646144834083988
2017-07-31	4.445404098037665
2017-08-01	4.14262273666623
2017-08-02	3.5862988721292854
2017-08-03	4.519391442229894
2017-08-04	4.09857767880549
2017-08-05	4.254864235946228
2017-08-06	2.9181738361509297
2017-08-07	3.9718976067639633
2017-08-08	4.548943575157182
2017-08-09	2.1487638845190347
2017-08-10	2.2861781754246846
2017-08-11	1.0702920571240997
2017-08-12	1.32704703590177
2017-08-13	2.8203182353209955
2017-08-14	3.7539034992544886
2017-08-15	4.22386234130847
2017-08-16	4.365997054230267
2017-08-17	3.7679750591045535
2017-08-18	4.197719216991808
2017-08-19	3.4379859611679784
2017-08-20	2.876405781011408
2017-08-21	3.3773784088838945
2017-08-22	3.2822296945927136
2017-08-23	3.715744785172083
2017-08-24	3.7087217900145015
2017-08-25	3.3078818277964013
2017-08-26	3.3723353200039465
2017-08-27	4.4418570287416905
2017-08-28	3.623882968594368
2017-08-29	3.70966846447818
2017-08-30	3.8057936190553874
2017-08-31	3.772558372560401
2017-09-01	1.0027394738496722
2017-09-02	1.3973437404011635
2017-09-03	1.4527613488398194
2017-09-04	2.60359386610673
2017-09-05	2.3877523047485902
2017-09-06	2.7673593060949035
2017-09-07	2.33880745835753
2017-09-08	1.8456683944976229
2017-09-09	1.937364556310624
2017-09-10	1.6458397819426298
2017-09-11	2.4611304384520487
2017-09-12	2.110198992625327
2017-09-13	2.1179958704063897
2017-09-14	2.7495805961706057
2017-09-15	2.1017646828323344
2017-09-16	2.585265477419074
2017-09-17	1.6600971425630568
2017-09-18	1.592301592027186
2017-09-19	1.461806597272321
2017-09-20	1.2487628090552634
2017-09-21	1.8249960209661897
2017-09-22	1.9493669007686207
2017-09-23	2.0618349098543813
2017-09-24	2.105951590486553
2017-09-25	2.0531766102635425
2017-09-26	1.9113669111790057
2017-09-27	1.794699413009491
2017-09-28	1.888782954771144
2017-09-29	1.7818232530393534
2017-09-30	1.9144897586062215
2017-10-01	1.4424522733276266
2017-10-02	1.4306813567186032
2017-10-03	1.1578254150066811
2017-10-04	1.7338221372620473
2017-10-05	1.2868188828666312
2017-10-06	2.406322567381055
2017-10-07	0.9442953380924234
2017-10-08	1.484337268846837
2017-10-09	0.8170526003365854
2017-10-10	0.8796315113184064
2017-10-11	1.0222432066582032
2017-10-12	1.5807283117009814
2017-10-13	1.6442919791097177
2017-10-14	1.3686082239362696
2017-10-15	1.2712694957556097
2017-10-16	1.3314231825764555
2017-10-17	1.3667529275373391
2017-10-18	1.4049945447233343
2017-10-19	1.3282360774774675
2017-10-20	1.1961167506062953
2017-10-21	1.572934950830146
2017-10-22	1.822391323266904
2017-10-23	1.1232365259392934
2017-10-24	0.8576816466879851
2017-10-25	0.9165347272147966
2017-10-26	0.8988967999169695
2017-10-27	0.8826215205756929
2017-10-28	0.8125350745060956
2017-10-29	0.8664271964855971
2017-10-30	0.7945907716179597
2017-10-31	0.6384126201618188
2017-11-01	0.5708756419870648
2017-11-02	0.5712099914712163
2017-11-03	1.2153130817977729
2017-11-04	0.5655157248301733
2017-11-05	0.8452194927868693
2017-11-06	0.5761584091777799
2017-11-07	0.4278819325865456
2017-11-08	0.41447594037450586
2017-11-09	0.3974521865137873
2017-11-10	0.3912149204668081
2017-11-11	0.6656366760253265
2017-11-12	0.7091964628656748
2017-11-13	0.6507884334480522
2017-11-14	0.3560373354265254
2017-11-15	0.2158734665176636
2017-11-16	0.2388645579318436
2017-11-17	0.33055052059513795
2017-11-18	0.2667366637717964
2017-11-19	0.44821619524731504
2017-11-20	0.6034455775902074
2017-11-21	0.5195913393480192
2017-11-22	1.1629655237485217
2017-11-23	1.0380486567515732
2017-11-24	1.059684246316345
2017-11-25	1.473541086783868
2017-11-26	0.4977925058371682
2017-11-27	0.3906122862474857
2017-11-28	0.8551220129705275
2017-11-29	1.0029370614176354
2017-11-30	0.34751576412946256
2017-12-01	0.2809864606353621
2017-12-02	0.2465209719083249
2017-12-03	0.2836330165596869
2017-12-04	0.2539627839097027
2017-12-05	0.3242273837898461
2017-12-06	0.20265268932460634
2017-12-07	0.037200315231113584
2017-12-08	1.0232910843739191
2017-12-09	0.6848577689454837
2017-12-10	0.40214139244628455
2017-12-11	1.0720700325322596
2017-12-12	0.7613556958358361
2017-12-13	0.8732812713495738
2017-12-14	1.2582104778221357
2017-12-15	0.9442197248912476
2017-12-16	0.7919991110434006
2017-12-17	0.4454816092066684
2017-12-18	0.31624175779758706
2017-12-19	0.3240507839609461
2017-12-20	0.2970581619248169
2017-12-21	0.2683592136939016
2017-12-22	0.2801439515726163
2017-12-23	0.3334329212199572
2017-12-24	0.2691123863272318
2017-12-25	0.40458802381883935
2017-12-26	0.2476793183634903
2017-12-27	1.0074967252458655
2017-12-28	0.7212999767879786
2017-12-29	0.4126670091707627
2017-12-30	0.7765274574794151
2017-12-31	0.900494930294479
2018-01-01	1.7629638711701543
2018-01-02	1.2460003101619603
2018-01-03	0.7133064259243956
2018-01-04	1.5725969499577201
2018-01-05	0.8433869103519469
2018-01-06	1.07983393339543
2018-01-07	0.144163762058627
2018-01-08	0.3024169708271625
2018-01-09	0.2867305833907567
2018-01-10	0.2685821164606655
2018-01-11	0.2981152878109192
2018-01-12	0.2591356457290199
2018-01-13	0.2495896479781265
2018-01-14	0.3476855350921804
2018-01-15	0.08581429466175043
2018-01-16	0.8541752829910098
2018-01-17	0.704343045111032
2018-01-18	0.9756950466822382
2018-01-19	0.8351631846272566
2018-01-20	0.7649246817594708
2018-01-21	0.9643413805747072
2018-01-22	0.4733123070625216
2018-01-23	0.5119695827286671
2018-01-24	0.5593123920292291
2018-01-25	0.6582263042137564
2018-01-26	1.1652873211483608
2018-01-27	0.6112836626041668
2018-01-28	0.4321207502296722
2018-01-29	0.8966158935386486
2018-01-30	0.663036162547605
2018-01-31	0.5955701199201259
2018-02-01	1.0192520922296
2018-02-02	0.7423785569461144
2018-02-03	0.5960420541817579
2018-02-04	0.5361165865110084
2018-02-05	0.6386233441495153
2018-02-06	0.4360458822873456
2018-02-07	0.4727530319494893
2018-02-08	0.3762407545422531
2018-02-09	0.3905539727577573
2018-02-10	0.5607410704942558
2018-02-11	0.5996468316027715
2018-02-12	1.057726882722728
2018-02-13	0.8531618823563177
2018-02-14	0.7461523817033969
2018-02-15	0.7383781760459168
2018-02-16	0.7012497723541522
2018-02-17	0.7215331197313685
2018-02-18	0.3822943439474972
2018-02-19	0.42233979690277895
2018-02-20	0.5554587020408106
2018-02-21	0.6532377460392111
2018-02-22	1.2070607851490018
2018-02-23	0.9935326800991746
2018-02-24	0.6264961773434613
2018-02-25	1.1664802981386744
2018-02-26	0.930666950535904
2018-02-27	1.0692460524605454
2018-02-28	0.9553531111876796
2018-03-01	1.2544743727003629
2018-03-02	1.0443085383251696
2018-03-03	0.802116151916024
2018-03-04	0.36194310610497415
2018-03-05	1.123078519956024
2018-03-06	1.2501757501523847
2018-03-07	1.059367834672668
2018-03-08	1.3189395290908321
2018-03-09	2.2238173861140744
2018-03-10	1.9630690948407443
2018-03-11	1.1888067734375185
2018-03-12	0.9026668087302367
2018-03-13	1.3877719766930758
2018-03-14	1.0671734725912982
2018-03-15	1.7189445559836949
2018-03-16	0.7873417725347707
2018-03-17	1.9492568741887428
2018-03-18	0.5312087498103992
2018-03-19	0.407586280739182
2018-03-20	0.5574343919983371
2018-03-21	1.3018693411857052
2018-03-22	1.948023422516232
2018-03-23	1.2778778788138934
2018-03-24	1.1526408507643078
2018-03-25	1.7634669375943586
2018-03-26	2.0128256724407563
2018-03-27	1.2913476138893871
2018-03-28	1.9424699553055
2018-03-29	1.2379382893457735
2018-03-30	1.4331570006508207
2018-03-31	1.4597579112729604
2018-04-01	1.7037830479691924
2018-04-02	1.2322442219252865
2018-04-03	1.8674364537087549
2018-04-04	2.8631965041390264
2018-04-05	2.4156331667993562
2018-04-06	1.6931306919996176
2018-04-07	2.62460741247504
2018-04-08	3.0998612272914343
2018-04-09	2.9554915297285915
2018-04-10	2.4747866348602408
2018-04-11	1.4067409933488046
2018-04-12	2.9998885681279783
2018-04-13	3.038212803547993
2018-04-14	2.5344384196594656
2018-04-15	2.684460640627845
2018-04-16	2.7919037300821072
2018-04-17	2.5407806876673007
2018-04-18	3.6596172436201
2018-04-19	4.356700747202241
2018-04-20	3.989471275638992
2018-04-21	4.0109008366870516
2018-04-22	4.1393197669216715
2018-04-23	4.657172423279853
2018-04-24	2.02318902099516
2018-04-25	3.7074048974248193
2018-04-26	3.5993549210747804
2018-04-27	2.4966580028280445
2018-04-28	4.078452026680522
2018-04-29	2.744550920192541
2018-04-30	3.4004555762419235
2018-05-01	4.005483584766019
2018-05-02	2.9608301359245166
2018-05-03	2.5435117310527127
2018-05-04	1.914131068749904
2018-05-05	3.3869350412675483
2018-05-06	3.847320340283441
2018-05-07	4.8109784348393765
2018-05-08	4.930089190977604
2018-05-09	4.588349605231316
2018-05-10	3.646346250703469
2018-05-11	0.9887323882568836
2018-05-12	3.949516610686167
2018-05-13	4.265199071527589
2018-05-14	1.055559263955104
2018-05-15	1.1923964263657012
2018-05-16	1.4331853846518954
2018-05-17	1.5194742664282197
2018-05-18	1.976089108011295
2018-05-19	3.8229460669476927
2018-05-20	3.740798444090718
2018-05-21	2.9086178548625448
2018-05-22	2.9839809531821184
2018-05-23	3.356319259101136
2018-05-24	2.6361905050012586
2018-05-25	4.1048404196330495
2018-05-26	4.965442857227941
2018-05-27	4.677937643604252
2018-05-28	4.445230772640055
2018-05-29	4.317068760733485
2018-05-30	3.7336853526910985
2018-05-31	5.0140641194043765
2018-06-01	3.951034191016981
2018-06-02	4.800727033125552
2018-06-03	4.341542680949456
2018-06-04	4.1764730984058485
2018-06-05	4.209681056702535
2018-06-06	3.998623621620255
2018-06-07	3.689911906216248
2018-06-08	3.135838724418139
2018-06-09	3.5433301386693814
2018-06-10	3.2499006471267124
2018-06-11	4.647438138054729
2018-06-12	2.4135446628446307
2018-06-13	2.607340800418338
2018-06-14	2.328350303746641
2018-06-15	4.273604288137843
2018-06-16	4.258184748019132
2018-06-17	4.8845256896704825
2018-06-18	3.4164882578401548
2018-06-19	4.970589844357919
2018-06-20	5.140008516355771
2018-06-21	5.412207154406235
2018-06-22	4.059867573513712
2018-06-23	4.424655946685896
2018-06-24	4.61783961901506
2018-06-25	4.023232193803681
2018-06-26	4.427357606151389
2018-06-27	4.9752931408021785
2018-06-28	5.091765555379753
2018-06-29	4.262194568039028
2018-06-30	3.6455351376519736
2018-07-01	5.76833938916368
2018-07-02	5.643046465758108
2018-07-03	5.531101362465613
2018-07-04	2.765932826873964
2018-07-05	4.765112637669564
2018-07-06	1.829051720463736
2018-07-07	3.408228852814056
2018-07-08	5.2100801337642535
2018-07-09	5.246714870637013
2018-07-10	5.245675286339185
2018-07-11	2.6002289318405944
2018-07-12	3.643284044856288
2018-07-13	4.9780272558969765
2018-07-14	5.3285058485169605
2018-07-15	4.867946573890204
2018-07-16	4.807949558202427
2018-07-17	5.204728790078627
2018-07-18	4.800303848745914
2018-07-19	5.40433150684755
2018-07-20	5.567138197123835
2018-07-21	4.317251487245517
2018-07-22	2.6310416052081025
2018-07-23	3.4497245825550045
2018-07-24	3.8105244455287615
2018-07-25	5.0862234639008115
2018-07-26	4.796874553309472
2018-07-27	5.405907075170652
2018-07-28	4.7321170927283855
2018-07-29	3.2365476916087808
2018-07-30	5.224017223116597
2018-07-31	5.571407556066903
2018-08-01	5.5615594013768135
2018-08-02	4.620089114337136
2018-08-03	5.058611748866409
2018-08-04	5.295762049477677
2018-08-05	5.149886774103705
2018-08-06	5.32095490665247
2018-08-07	5.100443397173295
2018-08-08	4.321919644292707
2018-08-09	4.852550589743851
2018-08-10	4.31209424610502
2018-08-11	4.414533811039699
2018-08-12	4.42278885020612
2018-08-13	4.784331923364718
2018-08-14	2.4254258212902333
2018-08-15	3.410460844933241
2018-08-16	4.338708037645293
2018-08-17	4.426185329916415
2018-08-18	3.710912710831147
2018-08-19	3.1038508827763867
2018-08-20	4.204618443011777
2018-08-21	4.635214653517531
2018-08-22	4.435119577738232
2018-08-23	4.531948096927816
2018-08-24	4.3171563126523465
2018-08-25	1.8139649947531875
2018-08-26	1.2566186196894915
2018-08-27	3.260736872498772
2018-08-28	3.278573681645488
2018-08-29	3.5003926660007365
2018-08-30	3.2347167449145253
2018-08-31	2.458602363186388
2018-09-01	0.7350279511156605
2018-09-02	1.888540405842104
2018-09-03	1.511702790583482
2018-09-04	1.5253298468245826
2018-09-05	2.5099832626211405
2018-09-06	3.279546687780223
2018-09-07	2.2324672671233103
2018-09-08	1.8857297918864744
2018-09-09	2.9231892015794254
2018-09-10	3.1731968770760135
2018-09-11	3.0866989707982784
2018-09-12	3.4076868704919137
2018-09-13	3.3248769305533967
2018-09-14	2.2284077427688285
2018-09-15	1.8091974749226865
2018-09-16	2.7584253091712982
2018-09-17	2.509603919760445
2018-09-18	2.8940190061076088
2018-09-19	2.9458155986358685
2018-09-20	2.8722858300491247
2018-09-21	2.9075983305448343
2018-09-22	2.315022297845815
2018-09-23	2.0650356938426744
2018-09-24	2.4092180133814947
2018-09-25	2.181236253248029
2018-09-26	2.3909422218589254
2018-09-27	1.9652928227751776
2018-09-28	2.084184705224109
2018-09-29	2.1862707487974284
2018-09-30	2.2797503861587054
2018-10-01	1.7868295244510088
2018-10-02	1.0248318902979383
2018-10-03	1.475277895879466
2018-10-04	1.1160074541390634
2018-10-05	1.6230978681419752
2018-10-06	1.7444815812571948
2018-10-07	1.8425717474341547
2018-10-08	1.6414387232447043
2018-10-09	1.0334867704300512
2018-10-10	1.4315999882440904
2018-10-11	1.1038239596719588
2018-10-12	0.9298708591557228
2018-10-13	1.6964513377540285
2018-10-14	1.5131288971312324
2018-10-15	1.4706159906477758
2018-10-16	1.4777588818581455
2018-10-17	1.2608075753761072
2018-10-18	1.2034370387802535
2018-10-19	1.0890148787429847
2018-10-20	0.7989910719408492
2018-10-21	0.7704184235042951
2018-10-22	0.7663404766080932
2018-10-23	1.03036510400387
2018-10-24	0.9634658169358316
2018-10-25	0.8600106485322692
2018-10-26	0.8403468846105883
2018-10-27	0.9925320501570724
2018-10-28	0.5118390001802545
2018-10-29	0.5503069991466476
2018-10-30	0.5721827516991556
2018-10-31	0.8544789435488122
